…
Most-streamed songs on Spotify

The data comes from the following Wikipedia entry: List of most-streamed songs on Spotify.

data <- "https://en.wikipedia.org/wiki/List_of_most-streamed_songs_on_Spotify" %>%
  read_html %>%
  html_table(header = TRUE, fill = TRUE)

data[[1]][, c(1, 2, 5, 6)] %>%
  as.tibble

## # A tibble: 101 x 4
##    Rank  `Song name`             `Streams(millions)` `Date published`  
##    <chr> <chr>                   <chr>               <chr>             
##  1 1.    "\"Shape of You\""      1,957               6 January, 2017   
##  2 2.    "\"One Dance\""         1,580               5 April, 2016     
##  3 3.    "\"Closer\""            1,397               29 July, 2016     
##  4 4.    "\"rockstar\""          1,294               15 September, 2017
##  5 5.    "\"Thinking Out Loud\"" 1,197               21 June, 2014     
##  6 6.    "\"Lean On\""           1,173               2 March, 2015     
##  7 7.    "\"Despacito (Remix)\"" 1,153               17 April, 2017    
##  8 8.    "\"Love Yourself\""     1,124               9 November, 2015  
##  9 9.    "\"Sorry\""             1,111               23 October, 2015  
## 10 10.   "\"Don't Let Me Down\"" 1,090               5 February, 2016  
## # ... with 91 more rows
…
Most-viewed YouTube videos

The data comes from the following Wikipedia entry: List of most-viewed YouTube videos.

data <- "https://en.wikipedia.org/wiki/List_of_most-viewed_YouTube_videos" %>%
  read_html %>%
  html_table(header = TRUE, fill = TRUE)

We then display the first rows of the data:

data[[1]][, c(1, 2, 4)] %>%
  as.tibble

## # A tibble: 101 x 3
##    `#`   `Video name`                                    `Views (billions
##    <chr> <chr>                                           <chr>            
##  1 1.    "\"Despacito\"[16]"                             5.66             
##  2 2.    "\"Shape of You\"[21]"                          3.88             
##  3 3.    "\"See You Again\"[22]"                         3.84             
##  4 4.    "\"Uptown Funk\"[29]"                           3.31             
##  5 5.    "\"Masha and the Bear: Recipe for Disaster\"[3 3.30             
##  6 6.    "\"Gangnam Style\"[31]"                         3.23             
##  7 7.    "\"Sorry\"[36]"                                 3.03             
##  8 8.    "\"Sugar\"[37]"                                 2.79             
##  9 9.    "\"Shake It Off\"[38]"                          2.67             
## 10 10.   "\"Roar\"[39]"                                  2.65             
## # ... with 91 more rows
…
